{
  "$schema": "http://json-schema.org/draft-04/schema#",
  "id": "resource:/schema/mode#",
  "title": "disman_mode",
  "description": "Disman Config Display Mode Schema",

  "type": "object",
  "properties": {
    "name": { "$ref": "definitions.json#/definitions/nonEmptyString" },
    "width": { "$ref": "definitions.json#/definitions/positiveIntegerNonZero" },
    "height": { "$ref": "definitions.json#/definitions/positiveIntegerNonZero" }
  },
  "required": [
    "name",
    "width",
    "height"
  ]
}
